%YAML 1.1
%TAG !u! tag:unity3d.com,2011:
--- !u!1045 &1
EditorBuildSettings:
  m_ObjectHideFlags: 0
  serializedVersion: 2
  m_Scenes:
  - enabled: 1
    path: Assets/Scenes/Menu.unity
    guid: 2cda990e2423bbf4892e6590ba056729
  - enabled: 1
    path: Assets/Scenes/Lvl1 Defolt.unity
    guid: ad0cdf3f4475b9243a47bdb3dec9174f
  - enabled: 1
    path: Assets/Scenes/Lvl2 Defolt.unity
    guid: 2fe14169d8d937145b253b8e1da9942b
  - enabled: 1
    path: Assets/Scenes/Lvl3 Defolt.unity
    guid: f919ffa8eda67aa44919592414d4f017
  - enabled: 1
    path: Assets/Scenes/Lvl1Square.unity
    guid: 252bf505419e7664c854afefb6149123
  - enabled: 1
    path: Assets/Scenes/Lvl2Square.unity
    guid: d3c7e7c95cc0de944902ebc9e85bac14
  - enabled: 1
    path: Assets/Scenes/Lvl3Square.unity
    guid: 52f76014bd0fc1242b6d4402ff5c53c6
  m_configObjects: {}
