%YAML 1.1
%TAG !u! tag:unity3d.com,2011:
--- !u!29 &1
OcclusionCullingSettings:
  m_ObjectHideFlags: 0
  serializedVersion: 2
  m_OcclusionBakeSettings:
    smallestOccluder: 5
    smallestHole: 0.25
    backfaceThreshold: 100
  m_SceneGUID: 00000000000000000000000000000000
  m_OcclusionCullingData: {fileID: 0}
--- !u!104 &2
RenderSettings:
  m_ObjectHideFlags: 0
  serializedVersion: 9
  m_Fog: 0
  m_FogColor: {r: 0.5, g: 0.5, b: 0.5, a: 1}
  m_FogMode: 3
  m_FogDensity: 0.01
  m_LinearFogStart: 0
  m_LinearFogEnd: 300
  m_AmbientSkyColor: {r: 0.212, g: 0.227, b: 0.259, a: 1}
  m_AmbientEquatorColor: {r: 0.114, g: 0.125, b: 0.133, a: 1}
  m_AmbientGroundColor: {r: 0.047, g: 0.043, b: 0.035, a: 1}
  m_AmbientIntensity: 1
  m_AmbientMode: 3
  m_SubtractiveShadowColor: {r: 0.42, g: 0.478, b: 0.627, a: 1}
  m_SkyboxMaterial: {fileID: 0}
  m_HaloStrength: 0.5
  m_FlareStrength: 1
  m_FlareFadeSpeed: 3
  m_HaloTexture: {fileID: 0}
  m_SpotCookie: {fileID: 10001, guid: 0000000000000000e000000000000000, type: 0}
  m_DefaultReflectionMode: 0
  m_DefaultReflectionResolution: 128
  m_ReflectionBounces: 1
  m_ReflectionIntensity: 1
  m_CustomReflection: {fileID: 0}
  m_Sun: {fileID: 0}
  m_IndirectSpecularColor: {r: 0, g: 0, b: 0, a: 1}
  m_UseRadianceAmbientProbe: 0
--- !u!157 &3
LightmapSettings:
  m_ObjectHideFlags: 0
  serializedVersion: 12
  m_GIWorkflowMode: 1
  m_GISettings:
    serializedVersion: 2
    m_BounceScale: 1
    m_IndirectOutputScale: 1
    m_AlbedoBoost: 1
    m_EnvironmentLightingMode: 0
    m_EnableBakedLightmaps: 0
    m_EnableRealtimeLightmaps: 0
  m_LightmapEditorSettings:
    serializedVersion: 12
    m_Resolution: 2
    m_BakeResolution: 40
    m_AtlasSize: 1024
    m_AO: 0
    m_AOMaxDistance: 1
    m_CompAOExponent: 1
    m_CompAOExponentDirect: 0
    m_ExtractAmbientOcclusion: 0
    m_Padding: 2
    m_LightmapParameters: {fileID: 0}
    m_LightmapsBakeMode: 1
    m_TextureCompression: 1
    m_FinalGather: 0
    m_FinalGatherFiltering: 1
    m_FinalGatherRayCount: 256
    m_ReflectionCompression: 2
    m_MixedBakeMode: 2
    m_BakeBackend: 1
    m_PVRSampling: 1
    m_PVRDirectSampleCount: 32
    m_PVRSampleCount: 512
    m_PVRBounces: 2
    m_PVREnvironmentSampleCount: 256
    m_PVREnvironmentReferencePointCount: 2048
    m_PVRFilteringMode: 1
    m_PVRDenoiserTypeDirect: 1
    m_PVRDenoiserTypeIndirect: 1
    m_PVRDenoiserTypeAO: 1
    m_PVRFilterTypeDirect: 0
    m_PVRFilterTypeIndirect: 0
    m_PVRFilterTypeAO: 0
    m_PVREnvironmentMIS: 1
    m_PVRCulling: 1
    m_PVRFilteringGaussRadiusDirect: 1
    m_PVRFilteringGaussRadiusIndirect: 5
    m_PVRFilteringGaussRadiusAO: 2
    m_PVRFilteringAtrousPositionSigmaDirect: 0.5
    m_PVRFilteringAtrousPositionSigmaIndirect: 2
    m_PVRFilteringAtrousPositionSigmaAO: 1
    m_ExportTrainingData: 0
    m_TrainingDataDestination: TrainingData
    m_LightProbeSampleCountMultiplier: 4
  m_LightingDataAsset: {fileID: 0}
  m_LightingSettings: {fileID: 0}
--- !u!196 &4
NavMeshSettings:
  serializedVersion: 2
  m_ObjectHideFlags: 0
  m_BuildSettings:
    serializedVersion: 2
    agentTypeID: 0
    agentRadius: 0.5
    agentHeight: 2
    agentSlope: 45
    agentClimb: 0.4
    ledgeDropHeight: 0
    maxJumpAcrossDistance: 0
    minRegionArea: 2
    manualCellSize: 0
    cellSize: 0.16666667
    manualTileSize: 0
    tileSize: 256
    accuratePlacement: 0
    maxJobWorkers: 0
    preserveTilesOutsideBounds: 0
    debug:
      m_Flags: 0
  m_NavMeshData: {fileID: 0}
--- !u!114 &1187328347 stripped
MonoBehaviour:
  m_CorrespondingSourceObject: {fileID: 571454673605694342, guid: c9a82ff60ebab5642ac63e7f9694432f, type: 3}
  m_PrefabInstance: {fileID: 571454672628622045}
  m_PrefabAsset: {fileID: 0}
  m_GameObject: {fileID: 0}
  m_Enabled: 1
  m_EditorHideFlags: 0
  m_Script: {fileID: 11500000, guid: 5f7201a12d95ffc409449d95f23cf332, type: 3}
  m_Name: 
  m_EditorClassIdentifier: 
--- !u!1 &1373818525
GameObject:
  m_ObjectHideFlags: 0
  m_CorrespondingSourceObject: {fileID: 0}
  m_PrefabInstance: {fileID: 0}
  m_PrefabAsset: {fileID: 0}
  serializedVersion: 6
  m_Component:
  - component: {fileID: 1373818528}
  - component: {fileID: 1373818527}
  - component: {fileID: 1373818526}
  - component: {fileID: 1373818529}
  m_Layer: 0
  m_Name: Main Camera
  m_TagString: MainCamera
  m_Icon: {fileID: 0}
  m_NavMeshLayer: 0
  m_StaticEditorFlags: 0
  m_IsActive: 1
--- !u!81 &1373818526
AudioListener:
  m_ObjectHideFlags: 0
  m_CorrespondingSourceObject: {fileID: 0}
  m_PrefabInstance: {fileID: 0}
  m_PrefabAsset: {fileID: 0}
  m_GameObject: {fileID: 1373818525}
  m_Enabled: 1
--- !u!20 &1373818527
Camera:
  m_ObjectHideFlags: 0
  m_CorrespondingSourceObject: {fileID: 0}
  m_PrefabInstance: {fileID: 0}
  m_PrefabAsset: {fileID: 0}
  m_GameObject: {fileID: 1373818525}
  m_Enabled: 1
  serializedVersion: 2
  m_ClearFlags: 1
  m_BackGroundColor: {r: 0.20754719, g: 0.20754719, b: 0.20754719, a: 0}
  m_projectionMatrixMode: 1
  m_GateFitMode: 2
  m_FOVAxisMode: 0
  m_SensorSize: {x: 36, y: 24}
  m_LensShift: {x: 0, y: 0}
  m_FocalLength: 50
  m_NormalizedViewPortRect:
    serializedVersion: 2
    x: 0
    y: 0
    width: 1
    height: 1
  near clip plane: 0
  far clip plane: 1000
  field of view: 60
  orthographic: 1
  orthographic size: 5
  m_Depth: -1
  m_CullingMask:
    serializedVersion: 2
    m_Bits: 4294967295
  m_RenderingPath: -1
  m_TargetTexture: {fileID: 0}
  m_TargetDisplay: 0
  m_TargetEye: 3
  m_HDR: 1
  m_AllowMSAA: 1
  m_AllowDynamicResolution: 0
  m_ForceIntoRT: 0
  m_OcclusionCulling: 1
  m_StereoConvergence: 10
  m_StereoSeparation: 0.022
--- !u!4 &1373818528
Transform:
  m_ObjectHideFlags: 0
  m_CorrespondingSourceObject: {fileID: 0}
  m_PrefabInstance: {fileID: 0}
  m_PrefabAsset: {fileID: 0}
  m_GameObject: {fileID: 1373818525}
  m_LocalRotation: {x: 0, y: 0, z: 0, w: 1}
  m_LocalPosition: {x: 0, y: 0, z: -10}
  m_LocalScale: {x: 1, y: 1, z: 1}
  m_Children: []
  m_Father: {fileID: 0}
  m_RootOrder: 0
  m_LocalEulerAnglesHint: {x: 0, y: 0, z: 0}
--- !u!114 &1373818529
MonoBehaviour:
  m_ObjectHideFlags: 0
  m_CorrespondingSourceObject: {fileID: 0}
  m_PrefabInstance: {fileID: 0}
  m_PrefabAsset: {fileID: 0}
  m_GameObject: {fileID: 1373818525}
  m_Enabled: 1
  m_EditorHideFlags: 0
  m_Script: {fileID: 11500000, guid: c14d81e9249eaaa4081c4cbb4c2d9eb5, type: 3}
  m_Name: 
  m_EditorClassIdentifier: 
--- !u!1001 &571454672628622045
PrefabInstance:
  m_ObjectHideFlags: 0
  serializedVersion: 2
  m_Modification:
    m_TransformParent: {fileID: 0}
    m_Modifications:
    - target: {fileID: 571454673622587266, guid: c9a82ff60ebab5642ac63e7f9694432f, type: 3}
      propertyPath: m_SizeDelta.x
      value: 360
      objectReference: {fileID: 0}
    - target: {fileID: 571454673622587266, guid: c9a82ff60ebab5642ac63e7f9694432f, type: 3}
      propertyPath: m_SizeDelta.y
      value: 75
      objectReference: {fileID: 0}
    - target: {fileID: 571454673622587266, guid: c9a82ff60ebab5642ac63e7f9694432f, type: 3}
      propertyPath: m_AnchoredPosition.x
      value: 696
      objectReference: {fileID: 0}
    - target: {fileID: 571454673622587266, guid: c9a82ff60ebab5642ac63e7f9694432f, type: 3}
      propertyPath: m_AnchoredPosition.y
      value: 429
      objectReference: {fileID: 0}
    - target: {fileID: 571454673686166918, guid: c9a82ff60ebab5642ac63e7f9694432f, type: 3}
      propertyPath: m_Pivot.x
      value: 0
      objectReference: {fileID: 0}
    - target: {fileID: 571454673686166918, guid: c9a82ff60ebab5642ac63e7f9694432f, type: 3}
      propertyPath: m_Pivot.y
      value: 0
      objectReference: {fileID: 0}
    - target: {fileID: 571454673686166918, guid: c9a82ff60ebab5642ac63e7f9694432f, type: 3}
      propertyPath: m_RootOrder
      value: 1
      objectReference: {fileID: 0}
    - target: {fileID: 571454673686166918, guid: c9a82ff60ebab5642ac63e7f9694432f, type: 3}
      propertyPath: m_AnchorMax.x
      value: 0
      objectReference: {fileID: 0}
    - target: {fileID: 571454673686166918, guid: c9a82ff60ebab5642ac63e7f9694432f, type: 3}
      propertyPath: m_AnchorMax.y
      value: 0
      objectReference: {fileID: 0}
    - target: {fileID: 571454673686166918, guid: c9a82ff60ebab5642ac63e7f9694432f, type: 3}
      propertyPath: m_AnchorMin.x
      value: 0
      objectReference: {fileID: 0}
    - target: {fileID: 571454673686166918, guid: c9a82ff60ebab5642ac63e7f9694432f, type: 3}
      propertyPath: m_AnchorMin.y
      value: 0
      objectReference: {fileID: 0}
    - target: {fileID: 571454673686166918, guid: c9a82ff60ebab5642ac63e7f9694432f, type: 3}
      propertyPath: m_SizeDelta.x
      value: 0
      objectReference: {fileID: 0}
    - target: {fileID: 571454673686166918, guid: c9a82ff60ebab5642ac63e7f9694432f, type: 3}
      propertyPath: m_SizeDelta.y
      value: 0
      objectReference: {fileID: 0}
    - target: {fileID: 571454673686166918, guid: c9a82ff60ebab5642ac63e7f9694432f, type: 3}
      propertyPath: m_LocalPosition.x
      value: 0
      objectReference: {fileID: 0}
    - target: {fileID: 571454673686166918, guid: c9a82ff60ebab5642ac63e7f9694432f, type: 3}
      propertyPath: m_LocalPosition.y
      value: 0
      objectReference: {fileID: 0}
    - target: {fileID: 571454673686166918, guid: c9a82ff60ebab5642ac63e7f9694432f, type: 3}
      propertyPath: m_LocalPosition.z
      value: 0
      objectReference: {fileID: 0}
    - target: {fileID: 571454673686166918, guid: c9a82ff60ebab5642ac63e7f9694432f, type: 3}
      propertyPath: m_LocalRotation.w
      value: 1
      objectReference: {fileID: 0}
    - target: {fileID: 571454673686166918, guid: c9a82ff60ebab5642ac63e7f9694432f, type: 3}
      propertyPath: m_LocalRotation.x
      value: 0
      objectReference: {fileID: 0}
    - target: {fileID: 571454673686166918, guid: c9a82ff60ebab5642ac63e7f9694432f, type: 3}
      propertyPath: m_LocalRotation.y
      value: 0
      objectReference: {fileID: 0}
    - target: {fileID: 571454673686166918, guid: c9a82ff60ebab5642ac63e7f9694432f, type: 3}
      propertyPath: m_LocalRotation.z
      value: 0
      objectReference: {fileID: 0}
    - target: {fileID: 571454673686166918, guid: c9a82ff60ebab5642ac63e7f9694432f, type: 3}
      propertyPath: m_AnchoredPosition.x
      value: 0
      objectReference: {fileID: 0}
    - target: {fileID: 571454673686166918, guid: c9a82ff60ebab5642ac63e7f9694432f, type: 3}
      propertyPath: m_AnchoredPosition.y
      value: 0
      objectReference: {fileID: 0}
    - target: {fileID: 571454673686166918, guid: c9a82ff60ebab5642ac63e7f9694432f, type: 3}
      propertyPath: m_LocalEulerAnglesHint.x
      value: 0
      objectReference: {fileID: 0}
    - target: {fileID: 571454673686166918, guid: c9a82ff60ebab5642ac63e7f9694432f, type: 3}
      propertyPath: m_LocalEulerAnglesHint.y
      value: 0
      objectReference: {fileID: 0}
    - target: {fileID: 571454673686166918, guid: c9a82ff60ebab5642ac63e7f9694432f, type: 3}
      propertyPath: m_LocalEulerAnglesHint.z
      value: 0
      objectReference: {fileID: 0}
    - target: {fileID: 571454673686166922, guid: c9a82ff60ebab5642ac63e7f9694432f, type: 3}
      propertyPath: m_Name
      value: Hud
      objectReference: {fileID: 0}
    m_RemovedComponents: []
  m_SourcePrefab: {fileID: 100100000, guid: c9a82ff60ebab5642ac63e7f9694432f, type: 3}
--- !u!1 &571454672628622046 stripped
GameObject:
  m_CorrespondingSourceObject: {fileID: 5256089258591705623, guid: c9a82ff60ebab5642ac63e7f9694432f, type: 3}
  m_PrefabInstance: {fileID: 571454672628622045}
  m_PrefabAsset: {fileID: 0}
--- !u!114 &571454672628622047 stripped
MonoBehaviour:
  m_CorrespondingSourceObject: {fileID: 8224270242659579040, guid: c9a82ff60ebab5642ac63e7f9694432f, type: 3}
  m_PrefabInstance: {fileID: 571454672628622045}
  m_PrefabAsset: {fileID: 0}
  m_GameObject: {fileID: 0}
  m_Enabled: 1
  m_EditorHideFlags: 0
  m_Script: {fileID: 11500000, guid: 5f7201a12d95ffc409449d95f23cf332, type: 3}
  m_Name: 
  m_EditorClassIdentifier: 
--- !u!1001 &952073488089149904
PrefabInstance:
  m_ObjectHideFlags: 0
  serializedVersion: 2
  m_Modification:
    m_TransformParent: {fileID: 0}
    m_Modifications:
    - target: {fileID: 952073489067030158, guid: 24a50ea190ef1a543a880041a44daf83, type: 3}
      propertyPath: m_Name
      value: Square
      objectReference: {fileID: 0}
    - target: {fileID: 952073489067030159, guid: 24a50ea190ef1a543a880041a44daf83, type: 3}
      propertyPath: razmer
      value: 2
      objectReference: {fileID: 0}
    - target: {fileID: 952073489067030159, guid: 24a50ea190ef1a543a880041a44daf83, type: 3}
      propertyPath: editing
      value: 1
      objectReference: {fileID: 0}
    - target: {fileID: 952073489067030193, guid: 24a50ea190ef1a543a880041a44daf83, type: 3}
      propertyPath: m_RootOrder
      value: 2
      objectReference: {fileID: 0}
    - target: {fileID: 952073489067030193, guid: 24a50ea190ef1a543a880041a44daf83, type: 3}
      propertyPath: m_LocalScale.x
      value: 1.4
      objectReference: {fileID: 0}
    - target: {fileID: 952073489067030193, guid: 24a50ea190ef1a543a880041a44daf83, type: 3}
      propertyPath: m_LocalScale.y
      value: 1.4
      objectReference: {fileID: 0}
    - target: {fileID: 952073489067030193, guid: 24a50ea190ef1a543a880041a44daf83, type: 3}
      propertyPath: m_LocalPosition.x
      value: -0.19
      objectReference: {fileID: 0}
    - target: {fileID: 952073489067030193, guid: 24a50ea190ef1a543a880041a44daf83, type: 3}
      propertyPath: m_LocalPosition.y
      value: 0.37
      objectReference: {fileID: 0}
    - target: {fileID: 952073489067030193, guid: 24a50ea190ef1a543a880041a44daf83, type: 3}
      propertyPath: m_LocalPosition.z
      value: 0
      objectReference: {fileID: 0}
    - target: {fileID: 952073489067030193, guid: 24a50ea190ef1a543a880041a44daf83, type: 3}
      propertyPath: m_LocalRotation.w
      value: 1
      objectReference: {fileID: 0}
    - target: {fileID: 952073489067030193, guid: 24a50ea190ef1a543a880041a44daf83, type: 3}
      propertyPath: m_LocalRotation.x
      value: 0
      objectReference: {fileID: 0}
    - target: {fileID: 952073489067030193, guid: 24a50ea190ef1a543a880041a44daf83, type: 3}
      propertyPath: m_LocalRotation.y
      value: 0
      objectReference: {fileID: 0}
    - target: {fileID: 952073489067030193, guid: 24a50ea190ef1a543a880041a44daf83, type: 3}
      propertyPath: m_LocalRotation.z
      value: 0
      objectReference: {fileID: 0}
    - target: {fileID: 952073489067030193, guid: 24a50ea190ef1a543a880041a44daf83, type: 3}
      propertyPath: m_LocalEulerAnglesHint.x
      value: 0
      objectReference: {fileID: 0}
    - target: {fileID: 952073489067030193, guid: 24a50ea190ef1a543a880041a44daf83, type: 3}
      propertyPath: m_LocalEulerAnglesHint.y
      value: 0
      objectReference: {fileID: 0}
    - target: {fileID: 952073489067030193, guid: 24a50ea190ef1a543a880041a44daf83, type: 3}
      propertyPath: m_LocalEulerAnglesHint.z
      value: 0
      objectReference: {fileID: 0}
    - target: {fileID: 952073489067030194, guid: 24a50ea190ef1a543a880041a44daf83, type: 3}
      propertyPath: m_IsTrigger
      value: 1
      objectReference: {fileID: 0}
    m_RemovedComponents: []
  m_SourcePrefab: {fileID: 100100000, guid: 24a50ea190ef1a543a880041a44daf83, type: 3}
--- !u!1001 &2621091024899570974
PrefabInstance:
  m_ObjectHideFlags: 0
  serializedVersion: 2
  m_Modification:
    m_TransformParent: {fileID: 0}
    m_Modifications:
    - target: {fileID: 2621091023847944680, guid: e024523f9beb99a42af2b1d19b1b9850, type: 3}
      propertyPath: m_RootOrder
      value: 4
      objectReference: {fileID: 0}
    - target: {fileID: 2621091023847944680, guid: e024523f9beb99a42af2b1d19b1b9850, type: 3}
      propertyPath: m_LocalPosition.x
      value: -4.511657
      objectReference: {fileID: 0}
    - target: {fileID: 2621091023847944680, guid: e024523f9beb99a42af2b1d19b1b9850, type: 3}
      propertyPath: m_LocalPosition.y
      value: 0.59089303
      objectReference: {fileID: 0}
    - target: {fileID: 2621091023847944680, guid: e024523f9beb99a42af2b1d19b1b9850, type: 3}
      propertyPath: m_LocalPosition.z
      value: -6.098604
      objectReference: {fileID: 0}
    - target: {fileID: 2621091023847944680, guid: e024523f9beb99a42af2b1d19b1b9850, type: 3}
      propertyPath: m_LocalRotation.w
      value: 1
      objectReference: {fileID: 0}
    - target: {fileID: 2621091023847944680, guid: e024523f9beb99a42af2b1d19b1b9850, type: 3}
      propertyPath: m_LocalRotation.x
      value: 0
      objectReference: {fileID: 0}
    - target: {fileID: 2621091023847944680, guid: e024523f9beb99a42af2b1d19b1b9850, type: 3}
      propertyPath: m_LocalRotation.y
      value: 0
      objectReference: {fileID: 0}
    - target: {fileID: 2621091023847944680, guid: e024523f9beb99a42af2b1d19b1b9850, type: 3}
      propertyPath: m_LocalRotation.z
      value: 0
      objectReference: {fileID: 0}
    - target: {fileID: 2621091023847944680, guid: e024523f9beb99a42af2b1d19b1b9850, type: 3}
      propertyPath: m_LocalEulerAnglesHint.x
      value: 0
      objectReference: {fileID: 0}
    - target: {fileID: 2621091023847944680, guid: e024523f9beb99a42af2b1d19b1b9850, type: 3}
      propertyPath: m_LocalEulerAnglesHint.y
      value: 0
      objectReference: {fileID: 0}
    - target: {fileID: 2621091023847944680, guid: e024523f9beb99a42af2b1d19b1b9850, type: 3}
      propertyPath: m_LocalEulerAnglesHint.z
      value: 0
      objectReference: {fileID: 0}
    - target: {fileID: 2621091023847944682, guid: e024523f9beb99a42af2b1d19b1b9850, type: 3}
      propertyPath: m_Name
      value: GameMananger
      objectReference: {fileID: 0}
    - target: {fileID: 2621091023847944683, guid: e024523f9beb99a42af2b1d19b1b9850, type: 3}
      propertyPath: text
      value: 
      objectReference: {fileID: 1187328347}
    - target: {fileID: 2621091023847944683, guid: e024523f9beb99a42af2b1d19b1b9850, type: 3}
      propertyPath: turns
      value: 10
      objectReference: {fileID: 0}
    - target: {fileID: 2621091023847944683, guid: e024523f9beb99a42af2b1d19b1b9850, type: 3}
      propertyPath: energy
      value: 1
      objectReference: {fileID: 0}
    - target: {fileID: 2621091023847944683, guid: e024523f9beb99a42af2b1d19b1b9850, type: 3}
      propertyPath: turnsLable
      value: 
      objectReference: {fileID: 1187328347}
    - target: {fileID: 2621091023847944683, guid: e024523f9beb99a42af2b1d19b1b9850, type: 3}
      propertyPath: energulabel
      value: 
      objectReference: {fileID: 571454672628622046}
    - target: {fileID: 2621091023847944683, guid: e024523f9beb99a42af2b1d19b1b9850, type: 3}
      propertyPath: energyLable
      value: 
      objectReference: {fileID: 571454672628622047}
    - target: {fileID: 2621091023847944683, guid: e024523f9beb99a42af2b1d19b1b9850, type: 3}
      propertyPath: trianglesAddon
      value: 0
      objectReference: {fileID: 0}
    m_RemovedComponents: []
  m_SourcePrefab: {fileID: 100100000, guid: e024523f9beb99a42af2b1d19b1b9850, type: 3}
--- !u!1001 &5539806196070043582
PrefabInstance:
  m_ObjectHideFlags: 0
  serializedVersion: 2
  m_Modification:
    m_TransformParent: {fileID: 0}
    m_Modifications:
    - target: {fileID: 5539806195447776896, guid: 1b6030367ebda984b90ca80b4d7c59cc, type: 3}
      propertyPath: m_Name
      value: Circle
      objectReference: {fileID: 0}
    - target: {fileID: 5539806195447776897, guid: 1b6030367ebda984b90ca80b4d7c59cc, type: 3}
      propertyPath: razmer
      value: 1
      objectReference: {fileID: 0}
    - target: {fileID: 5539806195447776897, guid: 1b6030367ebda984b90ca80b4d7c59cc, type: 3}
      propertyPath: editing
      value: 0
      objectReference: {fileID: 0}
    - target: {fileID: 5539806195447777023, guid: 1b6030367ebda984b90ca80b4d7c59cc, type: 3}
      propertyPath: m_RootOrder
      value: 3
      objectReference: {fileID: 0}
    - target: {fileID: 5539806195447777023, guid: 1b6030367ebda984b90ca80b4d7c59cc, type: 3}
      propertyPath: m_LocalScale.x
      value: 1
      objectReference: {fileID: 0}
    - target: {fileID: 5539806195447777023, guid: 1b6030367ebda984b90ca80b4d7c59cc, type: 3}
      propertyPath: m_LocalScale.y
      value: 1
      objectReference: {fileID: 0}
    - target: {fileID: 5539806195447777023, guid: 1b6030367ebda984b90ca80b4d7c59cc, type: 3}
      propertyPath: m_LocalScale.z
      value: 1
      objectReference: {fileID: 0}
    - target: {fileID: 5539806195447777023, guid: 1b6030367ebda984b90ca80b4d7c59cc, type: 3}
      propertyPath: m_LocalPosition.x
      value: -3.141
      objectReference: {fileID: 0}
    - target: {fileID: 5539806195447777023, guid: 1b6030367ebda984b90ca80b4d7c59cc, type: 3}
      propertyPath: m_LocalPosition.y
      value: 1.967
      objectReference: {fileID: 0}
    - target: {fileID: 5539806195447777023, guid: 1b6030367ebda984b90ca80b4d7c59cc, type: 3}
      propertyPath: m_LocalPosition.z
      value: 0
      objectReference: {fileID: 0}
    - target: {fileID: 5539806195447777023, guid: 1b6030367ebda984b90ca80b4d7c59cc, type: 3}
      propertyPath: m_LocalRotation.w
      value: 1
      objectReference: {fileID: 0}
    - target: {fileID: 5539806195447777023, guid: 1b6030367ebda984b90ca80b4d7c59cc, type: 3}
      propertyPath: m_LocalRotation.x
      value: 0
      objectReference: {fileID: 0}
    - target: {fileID: 5539806195447777023, guid: 1b6030367ebda984b90ca80b4d7c59cc, type: 3}
      propertyPath: m_LocalRotation.y
      value: 0
      objectReference: {fileID: 0}
    - target: {fileID: 5539806195447777023, guid: 1b6030367ebda984b90ca80b4d7c59cc, type: 3}
      propertyPath: m_LocalRotation.z
      value: 0
      objectReference: {fileID: 0}
    - target: {fileID: 5539806195447777023, guid: 1b6030367ebda984b90ca80b4d7c59cc, type: 3}
      propertyPath: m_LocalEulerAnglesHint.x
      value: 0
      objectReference: {fileID: 0}
    - target: {fileID: 5539806195447777023, guid: 1b6030367ebda984b90ca80b4d7c59cc, type: 3}
      propertyPath: m_LocalEulerAnglesHint.y
      value: 0
      objectReference: {fileID: 0}
    - target: {fileID: 5539806195447777023, guid: 1b6030367ebda984b90ca80b4d7c59cc, type: 3}
      propertyPath: m_LocalEulerAnglesHint.z
      value: 0
      objectReference: {fileID: 0}
    m_RemovedComponents: []
  m_SourcePrefab: {fileID: 100100000, guid: 1b6030367ebda984b90ca80b4d7c59cc, type: 3}
--- !u!1001 &5995090174193558185
PrefabInstance:
  m_ObjectHideFlags: 0
  serializedVersion: 2
  m_Modification:
    m_TransformParent: {fileID: 0}
    m_Modifications:
    - target: {fileID: 6828490984398942338, guid: ccddacea1c9983344a800fdcac43dda0, type: 3}
      propertyPath: m_RootOrder
      value: 6
      objectReference: {fileID: 0}
    - target: {fileID: 6828490984398942338, guid: ccddacea1c9983344a800fdcac43dda0, type: 3}
      propertyPath: m_LocalPosition.x
      value: 992.9118
      objectReference: {fileID: 0}
    - target: {fileID: 6828490984398942338, guid: ccddacea1c9983344a800fdcac43dda0, type: 3}
      propertyPath: m_LocalPosition.y
      value: 509.51138
      objectReference: {fileID: 0}
    - target: {fileID: 6828490984398942338, guid: ccddacea1c9983344a800fdcac43dda0, type: 3}
      propertyPath: m_LocalPosition.z
      value: -906.81085
      objectReference: {fileID: 0}
    - target: {fileID: 6828490984398942338, guid: ccddacea1c9983344a800fdcac43dda0, type: 3}
      propertyPath: m_LocalRotation.w
      value: 1
      objectReference: {fileID: 0}
    - target: {fileID: 6828490984398942338, guid: ccddacea1c9983344a800fdcac43dda0, type: 3}
      propertyPath: m_LocalRotation.x
      value: 0
      objectReference: {fileID: 0}
    - target: {fileID: 6828490984398942338, guid: ccddacea1c9983344a800fdcac43dda0, type: 3}
      propertyPath: m_LocalRotation.y
      value: 0
      objectReference: {fileID: 0}
    - target: {fileID: 6828490984398942338, guid: ccddacea1c9983344a800fdcac43dda0, type: 3}
      propertyPath: m_LocalRotation.z
      value: 0
      objectReference: {fileID: 0}
    - target: {fileID: 6828490984398942338, guid: ccddacea1c9983344a800fdcac43dda0, type: 3}
      propertyPath: m_LocalEulerAnglesHint.x
      value: 0
      objectReference: {fileID: 0}
    - target: {fileID: 6828490984398942338, guid: ccddacea1c9983344a800fdcac43dda0, type: 3}
      propertyPath: m_LocalEulerAnglesHint.y
      value: 0
      objectReference: {fileID: 0}
    - target: {fileID: 6828490984398942338, guid: ccddacea1c9983344a800fdcac43dda0, type: 3}
      propertyPath: m_LocalEulerAnglesHint.z
      value: 0
      objectReference: {fileID: 0}
    - target: {fileID: 7049399583303076258, guid: ccddacea1c9983344a800fdcac43dda0, type: 3}
      propertyPath: m_Name
      value: ScoreSistem
      objectReference: {fileID: 0}
    m_RemovedComponents: []
  m_SourcePrefab: {fileID: 100100000, guid: ccddacea1c9983344a800fdcac43dda0, type: 3}
--- !u!1001 &7695686886778220893
PrefabInstance:
  m_ObjectHideFlags: 0
  serializedVersion: 2
  m_Modification:
    m_TransformParent: {fileID: 0}
    m_Modifications:
    - target: {fileID: 1840631775874058577, guid: 10c344e99bc93f14c91dd14bedfaee1c, type: 3}
      propertyPath: m_RootOrder
      value: 5
      objectReference: {fileID: 0}
    - target: {fileID: 1840631775874058577, guid: 10c344e99bc93f14c91dd14bedfaee1c, type: 3}
      propertyPath: m_LocalPosition.x
      value: -2.5
      objectReference: {fileID: 0}
    - target: {fileID: 1840631775874058577, guid: 10c344e99bc93f14c91dd14bedfaee1c, type: 3}
      propertyPath: m_LocalPosition.y
      value: -0.52
      objectReference: {fileID: 0}
    - target: {fileID: 1840631775874058577, guid: 10c344e99bc93f14c91dd14bedfaee1c, type: 3}
      propertyPath: m_LocalPosition.z
      value: -8.329677
      objectReference: {fileID: 0}
    - target: {fileID: 1840631775874058577, guid: 10c344e99bc93f14c91dd14bedfaee1c, type: 3}
      propertyPath: m_LocalRotation.w
      value: 1
      objectReference: {fileID: 0}
    - target: {fileID: 1840631775874058577, guid: 10c344e99bc93f14c91dd14bedfaee1c, type: 3}
      propertyPath: m_LocalRotation.x
      value: 0
      objectReference: {fileID: 0}
    - target: {fileID: 1840631775874058577, guid: 10c344e99bc93f14c91dd14bedfaee1c, type: 3}
      propertyPath: m_LocalRotation.y
      value: 0
      objectReference: {fileID: 0}
    - target: {fileID: 1840631775874058577, guid: 10c344e99bc93f14c91dd14bedfaee1c, type: 3}
      propertyPath: m_LocalRotation.z
      value: 0
      objectReference: {fileID: 0}
    - target: {fileID: 1840631775874058577, guid: 10c344e99bc93f14c91dd14bedfaee1c, type: 3}
      propertyPath: m_LocalEulerAnglesHint.x
      value: 0
      objectReference: {fileID: 0}
    - target: {fileID: 1840631775874058577, guid: 10c344e99bc93f14c91dd14bedfaee1c, type: 3}
      propertyPath: m_LocalEulerAnglesHint.y
      value: 0
      objectReference: {fileID: 0}
    - target: {fileID: 1840631775874058577, guid: 10c344e99bc93f14c91dd14bedfaee1c, type: 3}
      propertyPath: m_LocalEulerAnglesHint.z
      value: 0
      objectReference: {fileID: 0}
    - target: {fileID: 3434402425230885364, guid: 10c344e99bc93f14c91dd14bedfaee1c, type: 3}
      propertyPath: m_Name
      value: treugolnick
      objectReference: {fileID: 0}
    m_RemovedComponents: []
  m_SourcePrefab: {fileID: 100100000, guid: 10c344e99bc93f14c91dd14bedfaee1c, type: 3}
