%YAML 1.1
%TAG !u! tag:unity3d.com,2011:
--- !u!29 &1
OcclusionCullingSettings:
  m_ObjectHideFlags: 0
  serializedVersion: 2
  m_OcclusionBakeSettings:
    smallestOccluder: 5
    smallestHole: 0.25
    backfaceThreshold: 100
  m_SceneGUID: 00000000000000000000000000000000
  m_OcclusionCullingData: {fileID: 0}
--- !u!104 &2
RenderSettings:
  m_ObjectHideFlags: 0
  serializedVersion: 9
  m_Fog: 0
  m_FogColor: {r: 0.5, g: 0.5, b: 0.5, a: 1}
  m_FogMode: 3
  m_FogDensity: 0.01
  m_LinearFogStart: 0
  m_LinearFogEnd: 300
  m_AmbientSkyColor: {r: 0.212, g: 0.227, b: 0.259, a: 1}
  m_AmbientEquatorColor: {r: 0.114, g: 0.125, b: 0.133, a: 1}
  m_AmbientGroundColor: {r: 0.047, g: 0.043, b: 0.035, a: 1}
  m_AmbientIntensity: 1
  m_AmbientMode: 3
  m_SubtractiveShadowColor: {r: 0.42, g: 0.478, b: 0.627, a: 1}
  m_SkyboxMaterial: {fileID: 0}
  m_HaloStrength: 0.5
  m_FlareStrength: 1
  m_FlareFadeSpeed: 3
  m_HaloTexture: {fileID: 0}
  m_SpotCookie: {fileID: 10001, guid: 0000000000000000e000000000000000, type: 0}
  m_DefaultReflectionMode: 0
  m_DefaultReflectionResolution: 128
  m_ReflectionBounces: 1
  m_ReflectionIntensity: 1
  m_CustomReflection: {fileID: 0}
  m_Sun: {fileID: 0}
  m_IndirectSpecularColor: {r: 0, g: 0, b: 0, a: 1}
  m_UseRadianceAmbientProbe: 0
--- !u!157 &3
LightmapSettings:
  m_ObjectHideFlags: 0
  serializedVersion: 12
  m_GIWorkflowMode: 1
  m_GISettings:
    serializedVersion: 2
    m_BounceScale: 1
    m_IndirectOutputScale: 1
    m_AlbedoBoost: 1
    m_EnvironmentLightingMode: 0
    m_EnableBakedLightmaps: 0
    m_EnableRealtimeLightmaps: 0
  m_LightmapEditorSettings:
    serializedVersion: 12
    m_Resolution: 2
    m_BakeResolution: 40
    m_AtlasSize: 1024
    m_AO: 0
    m_AOMaxDistance: 1
    m_CompAOExponent: 1
    m_CompAOExponentDirect: 0
    m_ExtractAmbientOcclusion: 0
    m_Padding: 2
    m_LightmapParameters: {fileID: 0}
    m_LightmapsBakeMode: 1
    m_TextureCompression: 1
    m_FinalGather: 0
    m_FinalGatherFiltering: 1
    m_FinalGatherRayCount: 256
    m_ReflectionCompression: 2
    m_MixedBakeMode: 2
    m_BakeBackend: 1
    m_PVRSampling: 1
    m_PVRDirectSampleCount: 32
    m_PVRSampleCount: 512
    m_PVRBounces: 2
    m_PVREnvironmentSampleCount: 256
    m_PVREnvironmentReferencePointCount: 2048
    m_PVRFilteringMode: 1
    m_PVRDenoiserTypeDirect: 1
    m_PVRDenoiserTypeIndirect: 1
    m_PVRDenoiserTypeAO: 1
    m_PVRFilterTypeDirect: 0
    m_PVRFilterTypeIndirect: 0
    m_PVRFilterTypeAO: 0
    m_PVREnvironmentMIS: 1
    m_PVRCulling: 1
    m_PVRFilteringGaussRadiusDirect: 1
    m_PVRFilteringGaussRadiusIndirect: 5
    m_PVRFilteringGaussRadiusAO: 2
    m_PVRFilteringAtrousPositionSigmaDirect: 0.5
    m_PVRFilteringAtrousPositionSigmaIndirect: 2
    m_PVRFilteringAtrousPositionSigmaAO: 1
    m_ExportTrainingData: 0
    m_TrainingDataDestination: TrainingData
    m_LightProbeSampleCountMultiplier: 4
  m_LightingDataAsset: {fileID: 0}
  m_LightingSettings: {fileID: 0}
--- !u!196 &4
NavMeshSettings:
  serializedVersion: 2
  m_ObjectHideFlags: 0
  m_BuildSettings:
    serializedVersion: 2
    agentTypeID: 0
    agentRadius: 0.5
    agentHeight: 2
    agentSlope: 45
    agentClimb: 0.4
    ledgeDropHeight: 0
    maxJumpAcrossDistance: 0
    minRegionArea: 2
    manualCellSize: 0
    cellSize: 0.16666667
    manualTileSize: 0
    tileSize: 256
    accuratePlacement: 0
    maxJobWorkers: 0
    preserveTilesOutsideBounds: 0
    debug:
      m_Flags: 0
  m_NavMeshData: {fileID: 0}
--- !u!1001 &445783458
PrefabInstance:
  m_ObjectHideFlags: 0
  serializedVersion: 2
  m_Modification:
    m_TransformParent: {fileID: 0}
    m_Modifications:
    - target: {fileID: 2621091023847944680, guid: e024523f9beb99a42af2b1d19b1b9850, type: 3}
      propertyPath: m_RootOrder
      value: 5
      objectReference: {fileID: 0}
    - target: {fileID: 2621091023847944680, guid: e024523f9beb99a42af2b1d19b1b9850, type: 3}
      propertyPath: m_LocalPosition.x
      value: -4.511657
      objectReference: {fileID: 0}
    - target: {fileID: 2621091023847944680, guid: e024523f9beb99a42af2b1d19b1b9850, type: 3}
      propertyPath: m_LocalPosition.y
      value: 0.59089303
      objectReference: {fileID: 0}
    - target: {fileID: 2621091023847944680, guid: e024523f9beb99a42af2b1d19b1b9850, type: 3}
      propertyPath: m_LocalPosition.z
      value: -6.098604
      objectReference: {fileID: 0}
    - target: {fileID: 2621091023847944680, guid: e024523f9beb99a42af2b1d19b1b9850, type: 3}
      propertyPath: m_LocalRotation.w
      value: 1
      objectReference: {fileID: 0}
    - target: {fileID: 2621091023847944680, guid: e024523f9beb99a42af2b1d19b1b9850, type: 3}
      propertyPath: m_LocalRotation.x
      value: 0
      objectReference: {fileID: 0}
    - target: {fileID: 2621091023847944680, guid: e024523f9beb99a42af2b1d19b1b9850, type: 3}
      propertyPath: m_LocalRotation.y
      value: 0
      objectReference: {fileID: 0}
    - target: {fileID: 2621091023847944680, guid: e024523f9beb99a42af2b1d19b1b9850, type: 3}
      propertyPath: m_LocalRotation.z
      value: 0
      objectReference: {fileID: 0}
    - target: {fileID: 2621091023847944680, guid: e024523f9beb99a42af2b1d19b1b9850, type: 3}
      propertyPath: m_LocalEulerAnglesHint.x
      value: 0
      objectReference: {fileID: 0}
    - target: {fileID: 2621091023847944680, guid: e024523f9beb99a42af2b1d19b1b9850, type: 3}
      propertyPath: m_LocalEulerAnglesHint.y
      value: 0
      objectReference: {fileID: 0}
    - target: {fileID: 2621091023847944680, guid: e024523f9beb99a42af2b1d19b1b9850, type: 3}
      propertyPath: m_LocalEulerAnglesHint.z
      value: 0
      objectReference: {fileID: 0}
    - target: {fileID: 2621091023847944682, guid: e024523f9beb99a42af2b1d19b1b9850, type: 3}
      propertyPath: m_Name
      value: GameMananger
      objectReference: {fileID: 0}
    - target: {fileID: 2621091023847944683, guid: e024523f9beb99a42af2b1d19b1b9850, type: 3}
      propertyPath: text
      value: 
      objectReference: {fileID: 643819501}
    - target: {fileID: 2621091023847944683, guid: e024523f9beb99a42af2b1d19b1b9850, type: 3}
      propertyPath: turnsLable
      value: 
      objectReference: {fileID: 643819501}
    m_RemovedComponents: []
  m_SourcePrefab: {fileID: 100100000, guid: e024523f9beb99a42af2b1d19b1b9850, type: 3}
--- !u!1001 &596200852
PrefabInstance:
  m_ObjectHideFlags: 0
  serializedVersion: 2
  m_Modification:
    m_TransformParent: {fileID: 0}
    m_Modifications:
    - target: {fileID: 6828490984398942338, guid: ccddacea1c9983344a800fdcac43dda0, type: 3}
      propertyPath: m_RootOrder
      value: 1
      objectReference: {fileID: 0}
    - target: {fileID: 6828490984398942338, guid: ccddacea1c9983344a800fdcac43dda0, type: 3}
      propertyPath: m_LocalPosition.x
      value: 992.9118
      objectReference: {fileID: 0}
    - target: {fileID: 6828490984398942338, guid: ccddacea1c9983344a800fdcac43dda0, type: 3}
      propertyPath: m_LocalPosition.y
      value: 509.51138
      objectReference: {fileID: 0}
    - target: {fileID: 6828490984398942338, guid: ccddacea1c9983344a800fdcac43dda0, type: 3}
      propertyPath: m_LocalPosition.z
      value: -906.81085
      objectReference: {fileID: 0}
    - target: {fileID: 6828490984398942338, guid: ccddacea1c9983344a800fdcac43dda0, type: 3}
      propertyPath: m_LocalRotation.w
      value: 1
      objectReference: {fileID: 0}
    - target: {fileID: 6828490984398942338, guid: ccddacea1c9983344a800fdcac43dda0, type: 3}
      propertyPath: m_LocalRotation.x
      value: 0
      objectReference: {fileID: 0}
    - target: {fileID: 6828490984398942338, guid: ccddacea1c9983344a800fdcac43dda0, type: 3}
      propertyPath: m_LocalRotation.y
      value: 0
      objectReference: {fileID: 0}
    - target: {fileID: 6828490984398942338, guid: ccddacea1c9983344a800fdcac43dda0, type: 3}
      propertyPath: m_LocalRotation.z
      value: 0
      objectReference: {fileID: 0}
    - target: {fileID: 6828490984398942338, guid: ccddacea1c9983344a800fdcac43dda0, type: 3}
      propertyPath: m_LocalEulerAnglesHint.x
      value: 0
      objectReference: {fileID: 0}
    - target: {fileID: 6828490984398942338, guid: ccddacea1c9983344a800fdcac43dda0, type: 3}
      propertyPath: m_LocalEulerAnglesHint.y
      value: 0
      objectReference: {fileID: 0}
    - target: {fileID: 6828490984398942338, guid: ccddacea1c9983344a800fdcac43dda0, type: 3}
      propertyPath: m_LocalEulerAnglesHint.z
      value: 0
      objectReference: {fileID: 0}
    - target: {fileID: 7049399583303076258, guid: ccddacea1c9983344a800fdcac43dda0, type: 3}
      propertyPath: m_Name
      value: ScoreSistem
      objectReference: {fileID: 0}
    m_RemovedComponents: []
  m_SourcePrefab: {fileID: 100100000, guid: ccddacea1c9983344a800fdcac43dda0, type: 3}
--- !u!1001 &643819500
PrefabInstance:
  m_ObjectHideFlags: 0
  serializedVersion: 2
  m_Modification:
    m_TransformParent: {fileID: 0}
    m_Modifications:
    - target: {fileID: 571454673686166918, guid: c9a82ff60ebab5642ac63e7f9694432f, type: 3}
      propertyPath: m_Pivot.x
      value: 0
      objectReference: {fileID: 0}
    - target: {fileID: 571454673686166918, guid: c9a82ff60ebab5642ac63e7f9694432f, type: 3}
      propertyPath: m_Pivot.y
      value: 0
      objectReference: {fileID: 0}
    - target: {fileID: 571454673686166918, guid: c9a82ff60ebab5642ac63e7f9694432f, type: 3}
      propertyPath: m_RootOrder
      value: 4
      objectReference: {fileID: 0}
    - target: {fileID: 571454673686166918, guid: c9a82ff60ebab5642ac63e7f9694432f, type: 3}
      propertyPath: m_AnchorMax.x
      value: 0
      objectReference: {fileID: 0}
    - target: {fileID: 571454673686166918, guid: c9a82ff60ebab5642ac63e7f9694432f, type: 3}
      propertyPath: m_AnchorMax.y
      value: 0
      objectReference: {fileID: 0}
    - target: {fileID: 571454673686166918, guid: c9a82ff60ebab5642ac63e7f9694432f, type: 3}
      propertyPath: m_AnchorMin.x
      value: 0
      objectReference: {fileID: 0}
    - target: {fileID: 571454673686166918, guid: c9a82ff60ebab5642ac63e7f9694432f, type: 3}
      propertyPath: m_AnchorMin.y
      value: 0
      objectReference: {fileID: 0}
    - target: {fileID: 571454673686166918, guid: c9a82ff60ebab5642ac63e7f9694432f, type: 3}
      propertyPath: m_SizeDelta.x
      value: 0
      objectReference: {fileID: 0}
    - target: {fileID: 571454673686166918, guid: c9a82ff60ebab5642ac63e7f9694432f, type: 3}
      propertyPath: m_SizeDelta.y
      value: 0
      objectReference: {fileID: 0}
    - target: {fileID: 571454673686166918, guid: c9a82ff60ebab5642ac63e7f9694432f, type: 3}
      propertyPath: m_LocalPosition.x
      value: 0
      objectReference: {fileID: 0}
    - target: {fileID: 571454673686166918, guid: c9a82ff60ebab5642ac63e7f9694432f, type: 3}
      propertyPath: m_LocalPosition.y
      value: 0
      objectReference: {fileID: 0}
    - target: {fileID: 571454673686166918, guid: c9a82ff60ebab5642ac63e7f9694432f, type: 3}
      propertyPath: m_LocalPosition.z
      value: 0
      objectReference: {fileID: 0}
    - target: {fileID: 571454673686166918, guid: c9a82ff60ebab5642ac63e7f9694432f, type: 3}
      propertyPath: m_LocalRotation.w
      value: 1
      objectReference: {fileID: 0}
    - target: {fileID: 571454673686166918, guid: c9a82ff60ebab5642ac63e7f9694432f, type: 3}
      propertyPath: m_LocalRotation.x
      value: 0
      objectReference: {fileID: 0}
    - target: {fileID: 571454673686166918, guid: c9a82ff60ebab5642ac63e7f9694432f, type: 3}
      propertyPath: m_LocalRotation.y
      value: 0
      objectReference: {fileID: 0}
    - target: {fileID: 571454673686166918, guid: c9a82ff60ebab5642ac63e7f9694432f, type: 3}
      propertyPath: m_LocalRotation.z
      value: 0
      objectReference: {fileID: 0}
    - target: {fileID: 571454673686166918, guid: c9a82ff60ebab5642ac63e7f9694432f, type: 3}
      propertyPath: m_AnchoredPosition.x
      value: 0
      objectReference: {fileID: 0}
    - target: {fileID: 571454673686166918, guid: c9a82ff60ebab5642ac63e7f9694432f, type: 3}
      propertyPath: m_AnchoredPosition.y
      value: 0
      objectReference: {fileID: 0}
    - target: {fileID: 571454673686166918, guid: c9a82ff60ebab5642ac63e7f9694432f, type: 3}
      propertyPath: m_LocalEulerAnglesHint.x
      value: 0
      objectReference: {fileID: 0}
    - target: {fileID: 571454673686166918, guid: c9a82ff60ebab5642ac63e7f9694432f, type: 3}
      propertyPath: m_LocalEulerAnglesHint.y
      value: 0
      objectReference: {fileID: 0}
    - target: {fileID: 571454673686166918, guid: c9a82ff60ebab5642ac63e7f9694432f, type: 3}
      propertyPath: m_LocalEulerAnglesHint.z
      value: 0
      objectReference: {fileID: 0}
    - target: {fileID: 571454673686166922, guid: c9a82ff60ebab5642ac63e7f9694432f, type: 3}
      propertyPath: m_Name
      value: Hud
      objectReference: {fileID: 0}
    m_RemovedComponents: []
  m_SourcePrefab: {fileID: 100100000, guid: c9a82ff60ebab5642ac63e7f9694432f, type: 3}
--- !u!114 &643819501 stripped
MonoBehaviour:
  m_CorrespondingSourceObject: {fileID: 571454673605694342, guid: c9a82ff60ebab5642ac63e7f9694432f, type: 3}
  m_PrefabInstance: {fileID: 643819500}
  m_PrefabAsset: {fileID: 0}
  m_GameObject: {fileID: 0}
  m_Enabled: 1
  m_EditorHideFlags: 0
  m_Script: {fileID: 11500000, guid: 5f7201a12d95ffc409449d95f23cf332, type: 3}
  m_Name: 
  m_EditorClassIdentifier: 
--- !u!1001 &1421995905
PrefabInstance:
  m_ObjectHideFlags: 0
  serializedVersion: 2
  m_Modification:
    m_TransformParent: {fileID: 0}
    m_Modifications:
    - target: {fileID: 5539806195447776896, guid: 1b6030367ebda984b90ca80b4d7c59cc, type: 3}
      propertyPath: m_Name
      value: Circle
      objectReference: {fileID: 0}
    - target: {fileID: 5539806195447776897, guid: 1b6030367ebda984b90ca80b4d7c59cc, type: 3}
      propertyPath: razmer
      value: 4
      objectReference: {fileID: 0}
    - target: {fileID: 5539806195447776897, guid: 1b6030367ebda984b90ca80b4d7c59cc, type: 3}
      propertyPath: editing
      value: 1
      objectReference: {fileID: 0}
    - target: {fileID: 5539806195447777023, guid: 1b6030367ebda984b90ca80b4d7c59cc, type: 3}
      propertyPath: m_RootOrder
      value: 0
      objectReference: {fileID: 0}
    - target: {fileID: 5539806195447777023, guid: 1b6030367ebda984b90ca80b4d7c59cc, type: 3}
      propertyPath: m_LocalScale.x
      value: 4
      objectReference: {fileID: 0}
    - target: {fileID: 5539806195447777023, guid: 1b6030367ebda984b90ca80b4d7c59cc, type: 3}
      propertyPath: m_LocalScale.y
      value: 4
      objectReference: {fileID: 0}
    - target: {fileID: 5539806195447777023, guid: 1b6030367ebda984b90ca80b4d7c59cc, type: 3}
      propertyPath: m_LocalScale.z
      value: 4
      objectReference: {fileID: 0}
    - target: {fileID: 5539806195447777023, guid: 1b6030367ebda984b90ca80b4d7c59cc, type: 3}
      propertyPath: m_LocalPosition.x
      value: -4.6058993
      objectReference: {fileID: 0}
    - target: {fileID: 5539806195447777023, guid: 1b6030367ebda984b90ca80b4d7c59cc, type: 3}
      propertyPath: m_LocalPosition.y
      value: 1.3504632
      objectReference: {fileID: 0}
    - target: {fileID: 5539806195447777023, guid: 1b6030367ebda984b90ca80b4d7c59cc, type: 3}
      propertyPath: m_LocalPosition.z
      value: 0
      objectReference: {fileID: 0}
    - target: {fileID: 5539806195447777023, guid: 1b6030367ebda984b90ca80b4d7c59cc, type: 3}
      propertyPath: m_LocalRotation.w
      value: 1
      objectReference: {fileID: 0}
    - target: {fileID: 5539806195447777023, guid: 1b6030367ebda984b90ca80b4d7c59cc, type: 3}
      propertyPath: m_LocalRotation.x
      value: 0
      objectReference: {fileID: 0}
    - target: {fileID: 5539806195447777023, guid: 1b6030367ebda984b90ca80b4d7c59cc, type: 3}
      propertyPath: m_LocalRotation.y
      value: 0
      objectReference: {fileID: 0}
    - target: {fileID: 5539806195447777023, guid: 1b6030367ebda984b90ca80b4d7c59cc, type: 3}
      propertyPath: m_LocalRotation.z
      value: 0
      objectReference: {fileID: 0}
    - target: {fileID: 5539806195447777023, guid: 1b6030367ebda984b90ca80b4d7c59cc, type: 3}
      propertyPath: m_LocalEulerAnglesHint.x
      value: 0
      objectReference: {fileID: 0}
    - target: {fileID: 5539806195447777023, guid: 1b6030367ebda984b90ca80b4d7c59cc, type: 3}
      propertyPath: m_LocalEulerAnglesHint.y
      value: 0
      objectReference: {fileID: 0}
    - target: {fileID: 5539806195447777023, guid: 1b6030367ebda984b90ca80b4d7c59cc, type: 3}
      propertyPath: m_LocalEulerAnglesHint.z
      value: 0
      objectReference: {fileID: 0}
    m_RemovedComponents: []
  m_SourcePrefab: {fileID: 100100000, guid: 1b6030367ebda984b90ca80b4d7c59cc, type: 3}
--- !u!1001 &1807955878
PrefabInstance:
  m_ObjectHideFlags: 0
  serializedVersion: 2
  m_Modification:
    m_TransformParent: {fileID: 0}
    m_Modifications:
    - target: {fileID: 4811828199279779680, guid: 036d36cacd3f44b41976c7e0545a1f3f, type: 3}
      propertyPath: m_Name
      value: Main Camera
      objectReference: {fileID: 0}
    - target: {fileID: 4811828199279779693, guid: 036d36cacd3f44b41976c7e0545a1f3f, type: 3}
      propertyPath: m_RootOrder
      value: 3
      objectReference: {fileID: 0}
    - target: {fileID: 4811828199279779693, guid: 036d36cacd3f44b41976c7e0545a1f3f, type: 3}
      propertyPath: m_LocalPosition.x
      value: 0
      objectReference: {fileID: 0}
    - target: {fileID: 4811828199279779693, guid: 036d36cacd3f44b41976c7e0545a1f3f, type: 3}
      propertyPath: m_LocalPosition.y
      value: 0
      objectReference: {fileID: 0}
    - target: {fileID: 4811828199279779693, guid: 036d36cacd3f44b41976c7e0545a1f3f, type: 3}
      propertyPath: m_LocalPosition.z
      value: -10
      objectReference: {fileID: 0}
    - target: {fileID: 4811828199279779693, guid: 036d36cacd3f44b41976c7e0545a1f3f, type: 3}
      propertyPath: m_LocalRotation.w
      value: 1
      objectReference: {fileID: 0}
    - target: {fileID: 4811828199279779693, guid: 036d36cacd3f44b41976c7e0545a1f3f, type: 3}
      propertyPath: m_LocalRotation.x
      value: 0
      objectReference: {fileID: 0}
    - target: {fileID: 4811828199279779693, guid: 036d36cacd3f44b41976c7e0545a1f3f, type: 3}
      propertyPath: m_LocalRotation.y
      value: 0
      objectReference: {fileID: 0}
    - target: {fileID: 4811828199279779693, guid: 036d36cacd3f44b41976c7e0545a1f3f, type: 3}
      propertyPath: m_LocalRotation.z
      value: 0
      objectReference: {fileID: 0}
    - target: {fileID: 4811828199279779693, guid: 036d36cacd3f44b41976c7e0545a1f3f, type: 3}
      propertyPath: m_LocalEulerAnglesHint.x
      value: 0
      objectReference: {fileID: 0}
    - target: {fileID: 4811828199279779693, guid: 036d36cacd3f44b41976c7e0545a1f3f, type: 3}
      propertyPath: m_LocalEulerAnglesHint.y
      value: 0
      objectReference: {fileID: 0}
    - target: {fileID: 4811828199279779693, guid: 036d36cacd3f44b41976c7e0545a1f3f, type: 3}
      propertyPath: m_LocalEulerAnglesHint.z
      value: 0
      objectReference: {fileID: 0}
    m_RemovedComponents: []
  m_SourcePrefab: {fileID: 100100000, guid: 036d36cacd3f44b41976c7e0545a1f3f, type: 3}
--- !u!1001 &2035026175
PrefabInstance:
  m_ObjectHideFlags: 0
  serializedVersion: 2
  m_Modification:
    m_TransformParent: {fileID: 0}
    m_Modifications:
    - target: {fileID: 952073489067030158, guid: 24a50ea190ef1a543a880041a44daf83, type: 3}
      propertyPath: m_Name
      value: Square
      objectReference: {fileID: 0}
    - target: {fileID: 952073489067030159, guid: 24a50ea190ef1a543a880041a44daf83, type: 3}
      propertyPath: razmer
      value: 3
      objectReference: {fileID: 0}
    - target: {fileID: 952073489067030159, guid: 24a50ea190ef1a543a880041a44daf83, type: 3}
      propertyPath: editing
      value: 1
      objectReference: {fileID: 0}
    - target: {fileID: 952073489067030193, guid: 24a50ea190ef1a543a880041a44daf83, type: 3}
      propertyPath: m_RootOrder
      value: 2
      objectReference: {fileID: 0}
    - target: {fileID: 952073489067030193, guid: 24a50ea190ef1a543a880041a44daf83, type: 3}
      propertyPath: m_LocalScale.x
      value: 2.1
      objectReference: {fileID: 0}
    - target: {fileID: 952073489067030193, guid: 24a50ea190ef1a543a880041a44daf83, type: 3}
      propertyPath: m_LocalScale.y
      value: 2.1
      objectReference: {fileID: 0}
    - target: {fileID: 952073489067030193, guid: 24a50ea190ef1a543a880041a44daf83, type: 3}
      propertyPath: m_LocalPosition.x
      value: 4.25
      objectReference: {fileID: 0}
    - target: {fileID: 952073489067030193, guid: 24a50ea190ef1a543a880041a44daf83, type: 3}
      propertyPath: m_LocalPosition.y
      value: 0.37
      objectReference: {fileID: 0}
    - target: {fileID: 952073489067030193, guid: 24a50ea190ef1a543a880041a44daf83, type: 3}
      propertyPath: m_LocalPosition.z
      value: 0
      objectReference: {fileID: 0}
    - target: {fileID: 952073489067030193, guid: 24a50ea190ef1a543a880041a44daf83, type: 3}
      propertyPath: m_LocalRotation.w
      value: 1
      objectReference: {fileID: 0}
    - target: {fileID: 952073489067030193, guid: 24a50ea190ef1a543a880041a44daf83, type: 3}
      propertyPath: m_LocalRotation.x
      value: 0
      objectReference: {fileID: 0}
    - target: {fileID: 952073489067030193, guid: 24a50ea190ef1a543a880041a44daf83, type: 3}
      propertyPath: m_LocalRotation.y
      value: 0
      objectReference: {fileID: 0}
    - target: {fileID: 952073489067030193, guid: 24a50ea190ef1a543a880041a44daf83, type: 3}
      propertyPath: m_LocalRotation.z
      value: 0
      objectReference: {fileID: 0}
    - target: {fileID: 952073489067030193, guid: 24a50ea190ef1a543a880041a44daf83, type: 3}
      propertyPath: m_LocalEulerAnglesHint.x
      value: 0
      objectReference: {fileID: 0}
    - target: {fileID: 952073489067030193, guid: 24a50ea190ef1a543a880041a44daf83, type: 3}
      propertyPath: m_LocalEulerAnglesHint.y
      value: 0
      objectReference: {fileID: 0}
    - target: {fileID: 952073489067030193, guid: 24a50ea190ef1a543a880041a44daf83, type: 3}
      propertyPath: m_LocalEulerAnglesHint.z
      value: 0
      objectReference: {fileID: 0}
    m_RemovedComponents: []
  m_SourcePrefab: {fileID: 100100000, guid: 24a50ea190ef1a543a880041a44daf83, type: 3}
